Mediation, Moderation, and Conditional Process Analysis with R - Moderation
…
The following table shows what happens: the cases assigned to the reference group \(x=0\) (no protest) are the ones marked with a zero on both \(x_1\) and \(x_2\). The cases assigned to the \(x=1\) group (individual protest frame) are the ones marked with a 1 on \(x_1\) and 0 on \(x_2\). Finally, the cases assigned to the \(x=2\) group (collective protest frame), are those marked with a 1 on \(x_2\) and 0 on \(x_1\). This is to say that when we are interpreting the coefficients or effects of \(x_1\) or \(x_2\), respectively, we do not have to care about \(x_2\) or \(x_1\), respectively, since they already are set to zero by default.

library(tidyverse)
protest %>% 
  mutate(x1 = case_when(protest==0 ~ 0,
                        protest==1 ~ 1,
                        protest==2 ~ 0),
         x2 = case_when(protest==0 ~ 0,
                        protest==1 ~ 0,
                        protest==2 ~ 1)) %>%
  select(protest, x1, x2)

# A tibble: 129 × 3
   protest           x1    x2
   <dbl+lbl>      <dbl> <dbl>
 1 2 [collective]     0     1
 2 0 [no protest]     0     0
 3 2 [collective]     0     1
 4 2 [collective]     0     1
 5 2 [collective]     0     1
 6 1 [individual]     1     0
 7 2 [collective]     0     1
 8 0 [no protest]     0     0
 9 0 [no protest]     0     0
10 0 [no protest]     0     0
# … with 119 more rows
…
